{
  "firstName": "Aleksei",
  "lastName": "Iljin",
  "passwordHash": "DEBEE6F6DDB4020E7C677C13FB7E52D5E6E7043460A97D2D742536D92BEA9ED4",
  "studyProgram": "D",
  "iHaveReadTheRulesOfTheCourse": true
}